…
In this post, we will use the Ames housing dataset to create a model for price prediction. The dataset contains 81 features for 3000 home sales between 2006-2010. The data is available in the AmesHousing package in R and this version of the data has already been cleaned.

ames_df <- make_ames() %>% 
  janitor::clean_names()

ames_df %>% count(neighborhood)

## # A tibble: 28 x 2
##    neighborhood           n
##  * <fct>              <int>
##  1 North_Ames           443
##  2 College_Creek        267
##  3 Old_Town             239
##  4 Edwards              194
##  5 Somerset             182
##  6 Northridge_Heights   166
##  7 Gilbert              165
##  8 Sawyer               151
##  9 Northwest_Ames       131
## 10 Sawyer_West          125
## # … with 18 more rows
…
